v 20130925 2
C 45900 42900 1 0 0 DS1307-1.sym
{
T 47600 45000 5 10 1 1 0 6 1
refdes=U2
T 46200 45350 5 10 0 0 0 0 1
device=ds1307
T 46200 45550 5 10 0 0 0 0 1
footprint=DIP8
}
C 49900 41600 1 0 0 dsPIC33EVxxGMx02.sym
{
T 52500 47700 5 10 1 1 0 0 1
refdes=U1
T 50200 47850 5 10 0 0 0 0 1
device=dsPIC33EVxxGMx02
T 50200 48250 5 10 0 0 0 0 1
footprint=DIP28
}
C 47900 45500 1 0 0 vdd-1.sym
C 45300 44600 1 0 0 vss-1.sym
N 49900 42000 48200 42000 4
N 48200 42000 48200 43300 4
N 49500 41400 49500 43700 4
N 49500 43700 47900 43700 4
N 48100 45500 48100 44500 4
N 48100 44500 47900 44500 4
N 45500 44600 45500 43300 4
N 45500 43300 45900 43300 4
N 49500 41400 53200 41400 4
N 53200 41400 53200 42000 4
N 53200 42000 53000 42000 4
N 48200 43300 47900 43300 4
C 48700 42600 1 0 0 input-1.sym
{
T 48700 42900 5 10 0 0 0 0 1
device=INPUT
T 48700 42600 5 10 1 1 0 0 1
value=0
}
C 47400 41900 1 0 0 input-1.sym
{
T 47400 42200 5 10 0 0 0 0 1
device=INPUT
T 47400 41900 5 10 1 1 0 0 1
value=2
}
C 55900 44700 1 90 0 resistor-1.sym
{
T 55500 45000 5 10 0 0 90 0 1
device=RESISTOR
T 55700 45300 5 10 1 1 180 0 1
refdes=R3
}
C 47100 47300 1 180 0 resistor-1.sym
{
T 46800 46900 5 10 0 0 180 0 1
device=RESISTOR
T 46900 47500 5 10 1 1 180 0 1
refdes=LDR1
}
C 46900 46200 1 180 0 resistor-1.sym
{
T 46600 45800 5 10 0 0 180 0 1
device=RESISTOR
T 46300 46300 5 10 1 1 0 0 1
refdes=R2
}
C 54000 43400 1 0 0 DS1821.sym
{
T 54100 45400 5 10 0 0 0 0 1
device=DS1821
T 54100 45600 5 10 0 0 0 0 1
footprint=SOT23
T 55500 44900 5 10 1 1 0 6 1
refdes=U3
}
C 56600 42500 1 180 0 input-1.sym
{
T 56600 42200 5 10 0 0 180 0 1
device=INPUT
T 56600 42500 5 10 1 1 180 0 1
value=1
}
C 47200 46500 1 0 0 input-1.sym
{
T 47200 46800 5 10 0 0 0 0 1
device=INPUT
T 47200 46500 5 10 1 1 0 0 1
value=A0
}
C 46000 47400 1 0 0 vdd-1.sym
C 54500 46000 1 0 0 vdd-1.sym
C 45800 46300 1 0 0 vss-1.sym
C 55200 43000 1 0 0 vss-1.sym
N 53000 42400 55800 42400 4
N 55800 42400 55800 44700 4
N 54700 42800 54700 43400 4
N 55400 43000 55400 42800 4
N 55400 42800 54700 42800 4
N 54700 46000 54700 45100 4
N 55800 45600 54700 45600 4
N 46000 46100 46000 46300 4
N 46200 47200 46200 47400 4
N 49900 46800 48000 46800 4
N 48000 46100 48000 47200 4
N 48000 47200 47100 47200 4
N 48000 46100 46900 46100 4
